<?xml version="1.0" encoding="iso-8859-1"?>
<!-- Generator: Adobe Illustrator 19.0.0, SVG Export Plug-In . SVG Version: 6.00 Build 0)  -->
<svg xmlns="http://www.w3.org/2000/svg" xmlns:xlink="http://www.w3.org/1999/xlink" version="1.1" id="Capa_1" x="0px" y="0px" viewBox="0 0 512 512" style="enable-background:new 0 0 512 512;" xml:space="preserve">
<g>
	<g>
		<path d="M100.325,0v442.811c0,38.054,31.135,69.189,69.189,69.189h172.972c38.054,0,69.189-31.135,69.189-69.189V0H100.325z     M256,463.568c-13.381,0-24.216-10.842-24.216-24.216c0-13.381,10.835-24.216,24.216-24.216c13.367,0,24.216,10.835,24.216,24.216    C280.216,452.726,269.367,463.568,256,463.568z M363.243,380.541H148.757V48.433h214.487V380.541z"/>
	</g>
</g>
<g>
</g>
<g>
</g>
<g>
</g>
<g>
</g>
<g>
</g>
<g>
</g>
<g>
</g>
<g>
</g>
<g>
</g>
<g>
</g>
<g>
</g>
<g>
</g>
<g>
</g>
<g>
</g>
<g>
</g>
</svg>
