<?xml version="1.0" encoding="iso-8859-1"?>
<!-- Generator: Adobe Illustrator 19.0.0, SVG Export Plug-In . SVG Version: 6.00 Build 0)  -->
<svg xmlns="http://www.w3.org/2000/svg" xmlns:xlink="http://www.w3.org/1999/xlink" version="1.1" id="Capa_1" x="0px" y="0px" viewBox="0 0 512 512" style="enable-background:new 0 0 512 512;" xml:space="preserve">
<g>
	<g>
		<path d="M395.893,355.152c-4.907-1.103-9.82-1.628-14.677-1.628c-33.987,0-65.279,25.856-73.581,63.366    c-9.484,42.874,14.659,84.718,53.919,93.488c4.907,1.097,9.813,1.621,14.665,1.621c34,0,65.293-25.85,73.581-63.366    C459.283,405.761,435.146,363.911,395.893,355.152z"/>
	</g>
</g>
<g>
	<g>
		<path d="M427.868,96.896c2.414-3.175,4.596-6.589,6.461-10.289c15.488-30.519,5.18-66.737-23.015-80.914    C403.646,1.835,395.441,0,387.255,0c-20.468,0-40.862,11.441-52.645,31.073c-23.741-7.692-50.055-12.02-77.806-12.02    c-29.135,0-56.728,4.73-81.377,13.171c-11.666-20.332-32.444-32.218-53.308-32.218c-8.186,0-16.384,1.829-24.046,5.693    C69.876,19.876,59.575,56.1,75.058,86.614c2.469,4.871,5.492,9.234,8.863,13.185c-10.295,16.701-16.061,35.164-16.061,54.601    c0,74.746,84.59,135.333,188.946,135.333c104.344,0,188.953-60.586,188.953-135.333    C445.764,133.839,439.328,114.359,427.868,96.896z M171.478,127.994c0-10.1,8.18-18.28,18.28-18.28    c10.094,0,18.292,8.18,18.292,18.28c0,10.094-8.198,18.292-18.292,18.292C179.658,146.286,171.478,138.088,171.478,127.994z     M256.811,249.905c-37.022,0-67.047-21.834-67.047-48.762c0-19.986,16.567-37.157,40.241-44.678    c-2.262,4.255-3.669,9.039-3.669,14.195c0,16.829,13.653,30.483,30.476,30.483s30.476-13.653,30.476-30.483    c0-5.156-1.402-9.941-3.669-14.195c23.674,7.521,40.241,24.692,40.241,44.678C323.859,228.071,293.834,249.905,256.811,249.905z     M323.859,146.286c-10.087,0-18.286-8.198-18.286-18.292c0-10.1,8.198-18.28,18.286-18.28s18.286,8.18,18.286,18.28    C342.145,138.088,333.947,146.286,323.859,146.286z"/>
	</g>
</g>
<g>
	<g>
		<path d="M205.989,416.891c-8.302-37.51-39.595-63.366-73.581-63.366c-4.857,0-9.771,0.525-14.677,1.628    c-39.253,8.759-63.39,50.609-53.907,93.482C72.114,486.15,103.407,512,137.405,512c4.852,0,9.764-0.525,14.665-1.621    C191.324,501.614,215.467,459.764,205.989,416.891z"/>
	</g>
</g>
<g>
	<g>
		<path d="M469.475,289.475l-43.703-28.836c-5.474,4.956-11.313,9.722-17.615,14.233c-40.82,29.238-94.574,45.336-151.351,45.336    c-56.784,0-110.537-16.103-151.351-45.336c-6.558-4.7-12.617-9.68-18.286-14.86l-44.647,29.464    c-22.388,14.775-29.124,44.404-14.976,65.847c5.004,7.577,11.995,13.117,19.907,16.512c13.983-23.022,36.231-40.308,63.622-46.427    c7.01-1.561,14.183-2.359,21.333-2.359c48.689,0,92.148,36.699,103.339,87.26c4.87,22.022,3.127,43.91-3.834,63.36    c8.082,1.134,16.396,1.761,24.899,1.761c8.502,0,16.816-0.628,24.899-1.761c-6.96-19.444-8.71-41.332-3.834-63.36    c11.185-50.56,54.65-87.253,103.339-87.26h0.012c7.138,0,14.312,0.798,21.309,2.359c27.166,6.064,49.256,23.131,63.262,45.866    c7.394-3.431,13.915-8.771,18.657-15.951C498.604,333.879,491.863,304.25,469.475,289.475z"/>
	</g>
</g>
<g>
</g>
<g>
</g>
<g>
</g>
<g>
</g>
<g>
</g>
<g>
</g>
<g>
</g>
<g>
</g>
<g>
</g>
<g>
</g>
<g>
</g>
<g>
</g>
<g>
</g>
<g>
</g>
<g>
</g>
</svg>
