<?xml version="1.0" encoding="iso-8859-1"?>
<!-- Generator: Adobe Illustrator 19.0.0, SVG Export Plug-In . SVG Version: 6.00 Build 0)  -->
<svg version="1.1" id="Capa_1" xmlns="http://www.w3.org/2000/svg" xmlns:xlink="http://www.w3.org/1999/xlink" x="0px" y="0px"
	 viewBox="0 0 408 408" style="enable-background:new 0 0 408 408;" xml:space="preserve">
<g>
	<g>
		<path d="M397.9,83.1c5.5,0,10-4.5,10.1-10V10.2C408,4.5,403.5,0,397.9,0H335c-5.5,0-10,4.5-10,10.1V32h-80V10.1
			c0-5.5-4-10.1-9.5-10.1h-62.9c-5.5,0-9.6,4.5-9.6,10.1V32H83V10.1c0-5.5-4.5-10-10-10.1H10.1C4.6,0,0.1,4.5,0,10.1V73
			c0,5.5,4.5,10,10.1,10H32v80H10.1C4.6,163,0,167,0,172.5v62.9c0,5.5,4.5,9.6,10.1,9.6H32v80H10.1c-5.5,0-10,4.5-10.1,10v62.9
			c0,5.5,4.5,10,10.1,10.1H73c5.5,0,10-4.5,10-10.1V376h80v21.9c0,5.5,4,10.1,9.5,10.1h62.9c5.5,0,9.5-4.5,9.5-10.1V376h80v21.9
			c0,5.5,4.5,10,10,10.1h62.9c5.5,0,10-4.5,10.1-10.1V335c0-5.5-4.5-10-10.1-10H376v-80h21.9c5.5,0,10.1-4,10.1-9.5v-62.9
			c0-5.5-4.5-9.5-10.1-9.5H376v-80H397.9z M183,20h42v43h-42V20z M20,63V20h43v43H20z M20,225v-42h43v42H20z M63,388H20v-43h43V388z
			 M225,388h-42v-43h42V388z M325,335v21h-80v-21c0-5.5-4-10-9.5-10h-62.9c-5.5,0-9.6,4.5-9.6,10v21H83v-21c0-5.5-4.5-10-10-10H52
			v-80h21c5.5,0,10-4,10-9.5v-62.9c0-5.5-4.5-9.5-10-9.5H52v-80h21c5.5,0,10-4.5,10-10v-21h80v21c0,5.5,4,10,9.5,10h62.9
			c5.5,0,9.5-4.5,9.5-10v-21h80v21c0,5.5,4.5,10,10,10h21V163h-21c-5.5,0-10,4-10,9.5v62.9c0,5.5,4.5,9.5,10,9.5h21v80h-21
			C329.5,325,325,329.5,325,335z M388,345v43h-43v-43H388z M388,183v42h-43v-42H388z M345,63V20h43v43H345z"/>
	</g>
</g>
<g>
</g>
<g>
</g>
<g>
</g>
<g>
</g>
<g>
</g>
<g>
</g>
<g>
</g>
<g>
</g>
<g>
</g>
<g>
</g>
<g>
</g>
<g>
</g>
<g>
</g>
<g>
</g>
<g>
</g>
</svg>
