<?xml version="1.0" encoding="iso-8859-1"?>
<!-- Generator: Adobe Illustrator 19.0.0, SVG Export Plug-In . SVG Version: 6.00 Build 0)  -->
<svg version="1.1" id="Capa_1" xmlns="http://www.w3.org/2000/svg" xmlns:xlink="http://www.w3.org/1999/xlink" x="0px" y="0px"
	 viewBox="0 0 449.8 449.8" style="enable-background:new 0 0 449.8 449.8;" xml:space="preserve">
<g>
	<g>
		<path d="M374.8,58.8H369V11.7c0.1-5.4-4.2-9.8-9.6-9.9c-0.1,0-0.2,0-0.2,0H10C4.5,1.7,0,6.1,0,11.6c0,0,0,0,0,0.1v114.6
			c0,5.5,4.5,10.5,10,10.5h349.2c5.5,0,9.8-5,9.8-10.5V78.8h5.8c14.6,0,28.7,5.9,39,16.2c10.4,10.3,16.2,24.3,16.2,38.8
			c0,30.4-24.7,55-55.1,55h-133c-28.5,0-51.9,23.7-51.9,52.2v0.8h-32.5c-5.1-0.2-9.4,3.9-9.5,9c0,0.2,0,0.4,0,0.6V395
			c-0.1,14,5.4,27.5,15.2,37.5s23.2,15.6,37.1,15.5c29.1-0.1,52.7-23.7,52.6-52.9V395V251.4c0.2-5.1-3.8-9.4-8.9-9.6
			c-0.2,0-0.4,0-0.6,0H210V241c0-17.5,14.5-32.2,31.9-32.2h132.9c41.4,0,75-33.6,75-75S416.2,58.8,374.8,58.8z M349,116.8H20v-95
			h329V116.8z M233,394.9c0.1,18.1-14.5,32.9-32.6,33h-0.1c-8.7,0-17-3.5-23-9.7c-6.1-6.2-9.4-14.6-9.3-23.3v-82.1h65V394.9z
			 M233,261.8v31h-65v-31H233z"/>
	</g>
</g>
<g>
</g>
<g>
</g>
<g>
</g>
<g>
</g>
<g>
</g>
<g>
</g>
<g>
</g>
<g>
</g>
<g>
</g>
<g>
</g>
<g>
</g>
<g>
</g>
<g>
</g>
<g>
</g>
<g>
</g>
</svg>
