<?xml version="1.0" encoding="iso-8859-1"?>
<!-- Generator: Adobe Illustrator 19.0.0, SVG Export Plug-In . SVG Version: 6.00 Build 0)  -->
<svg version="1.1" id="Capa_1" xmlns="http://www.w3.org/2000/svg" xmlns:xlink="http://www.w3.org/1999/xlink" x="0px" y="0px"
	 viewBox="0 0 452.4 452.4" style="enable-background:new 0 0 452.4 452.4;" xml:space="preserve">
<g>
	<g>
		<path d="M303.9,77.7c-27.4-0.1-54.4,7.6-77.7,22c-23.3-14.4-50.3-22.1-77.7-22C66.6,77.7,0,144.3,0,226.2s66.6,148.5,148.5,148.5
			c27.4,0.1,54.4-7.6,77.7-22c23.3,14.4,50.3,22.1,77.7,22c81.9,0,148.5-66.6,148.5-148.5S385.8,77.7,303.9,77.7z M148.5,354.8
			c-71,0-128.6-57.6-128.6-128.5S77.5,97.7,148.5,97.7c20.9,0,41.5,5,59.9,14.8c-62.8,52.7-71,146.3-18.3,209.1
			c5.6,6.6,11.7,12.7,18.3,18.3C190,349.7,169.4,354.8,148.5,354.8z M226.2,328.5c-56.5-42.9-67.6-123.5-24.7-180
			c7.1-9.3,15.4-17.6,24.7-24.7c56.5,42.9,67.6,123.5,24.7,180C243.8,313.2,235.5,321.5,226.2,328.5z M303.9,354.7
			c-20.9,0-41.5-5-59.9-14.8c62.8-52.7,71-146.3,18.3-209.1c-5.6-6.6-11.7-12.7-18.3-18.3c18.5-9.8,39-14.9,59.9-14.8
			c71,0,128.5,57.6,128.5,128.6S374.9,354.8,303.9,354.7z"/>
	</g>
</g>
<g>
</g>
<g>
</g>
<g>
</g>
<g>
</g>
<g>
</g>
<g>
</g>
<g>
</g>
<g>
</g>
<g>
</g>
<g>
</g>
<g>
</g>
<g>
</g>
<g>
</g>
<g>
</g>
<g>
</g>
</svg>
