<?xml version="1.0" encoding="iso-8859-1"?>
<!-- Generator: Adobe Illustrator 19.0.0, SVG Export Plug-In . SVG Version: 6.00 Build 0)  -->
<svg version="1.1" id="Capa_1" xmlns="http://www.w3.org/2000/svg" xmlns:xlink="http://www.w3.org/1999/xlink" x="0px" y="0px"
	 viewBox="0 0 502.4 502.4" style="enable-background:new 0 0 502.4 502.4;" xml:space="preserve">
<g>
	<g>
		<path d="M342.3,404.6l-82.8-101.9c-3.5-4.3-9.8-5-14-1.5c-0.5,0.4-1,0.9-1.5,1.5l-82.8,101.9c-2.4,3.1-2.9,7.2-1.3,10.8
			c1.6,3.5,5.1,5.8,9,5.9h72.8v71.1c0,5.5,4.5,10,10,10s10-4.5,10-10v-71.2h72.8c5.6-0.1,10.1-4.8,10-10.4
			C344.5,408.6,343.7,406.4,342.3,404.6z M189.9,401.2l61.8-76l61.8,76H189.9z"/>
	</g>
</g>
<g>
	<g>
		<path d="M439.7,220.2h-377c-5.5,0-10,4.5-10,10v42c0,5.5,4.5,10,10,10h377c5.5,0,10-4.5,10-10v-42
			C449.7,224.7,445.2,220.2,439.7,220.2z M430.7,262.2h-358v-22h358V262.2z"/>
	</g>
</g>
<g>
	<g>
		<path d="M343.6,87c-1.6-3.5-5.1-5.8-9-5.9h-72.9V10c0-5.5-4.5-10-10-10s-10,4.5-10,10v71.1h-72.8c-5.6,0.1-10.1,4.8-10,10.4
			c0,2.2,0.8,4.4,2.2,6.2l82.8,102c3.5,4.3,9.8,4.9,14.1,1.5c0.5-0.4,1-0.9,1.5-1.5l82.8-101.9C344.7,94.7,345.2,90.6,343.6,87z
			 M251.7,177.2l-61.8-76h123.6L251.7,177.2z"/>
	</g>
</g>
<g>
</g>
<g>
</g>
<g>
</g>
<g>
</g>
<g>
</g>
<g>
</g>
<g>
</g>
<g>
</g>
<g>
</g>
<g>
</g>
<g>
</g>
<g>
</g>
<g>
</g>
<g>
</g>
<g>
</g>
</svg>
