<?xml version="1.0" encoding="iso-8859-1"?>
<!-- Generator: Adobe Illustrator 19.0.0, SVG Export Plug-In . SVG Version: 6.00 Build 0)  -->
<svg version="1.1" id="Capa_1" xmlns="http://www.w3.org/2000/svg" xmlns:xlink="http://www.w3.org/1999/xlink" x="0px" y="0px"
	 viewBox="0 0 423 423" style="enable-background:new 0 0 423 423;" xml:space="preserve">
<g>
	<g>
		<path d="M131,164.5H42c-5.5,0-10,4.5-10,10v73c0,5.5,4.5,10,10,10h89c5.5,0,10-4.5,10-10v-73C141,169,136.5,164.5,131,164.5z
			 M121,238.5H52v-54h69V238.5z"/>
	</g>
</g>
<g>
	<g>
		<path d="M10,12.8c-5.5,0-10,4.5-10,10v377.4c0,5.5,4.5,10,10,10s10-4.5,10-10V22.8C20,17.3,15.5,12.8,10,12.8z"/>
	</g>
</g>
<g>
	<g>
		<path d="M413,164.5H251c-5.5,0-10,4.5-10,10v73c0,5.5,4.5,10,10,10h162c5.5,0,10-4.5,10-10v-73C423,169,418.5,164.5,413,164.5z
			 M404,238.5H261v-54h143V238.5z"/>
	</g>
</g>
<g>
	<g>
		<path d="M220,12.8c-5.5,0-10,4.5-10,10v377.4c0,5.5,4.5,10,10,10s10-4.5,10-10V22.8C230,17.3,225.5,12.8,220,12.8z"/>
	</g>
</g>
<g>
</g>
<g>
</g>
<g>
</g>
<g>
</g>
<g>
</g>
<g>
</g>
<g>
</g>
<g>
</g>
<g>
</g>
<g>
</g>
<g>
</g>
<g>
</g>
<g>
</g>
<g>
</g>
<g>
</g>
</svg>
