<?xml version="1.0" encoding="iso-8859-1"?>
<!-- Generator: Adobe Illustrator 16.0.0, SVG Export Plug-In . SVG Version: 6.00 Build 0)  -->
<!DOCTYPE svg PUBLIC "-//W3C//DTD SVG 1.1//EN" "http://www.w3.org/Graphics/SVG/1.1/DTD/svg11.dtd">
<svg version="1.1" id="Capa_1" xmlns="http://www.w3.org/2000/svg" xmlns:xlink="http://www.w3.org/1999/xlink" x="0px" y="0px"
	 width="979.799px" height="979.8px" viewBox="0 0 979.799 979.8" style="enable-background:new 0 0 979.799 979.8;"
	 xml:space="preserve">
<g>
	<path d="M341.5,672.4c-11.3-4.801-22.399-10.101-33.1-15.9v289.4c0,20.5,16.7,33.899,34.1,33.899c8.801,0,17.7-3.399,24.7-11.1
		L466,860.6c6.7-7.3,15.801-11,25-11c9.101,0,18.301,3.7,25,11L614.8,968.7c7,7.7,15.899,11.1,24.699,11.1
		c17.4,0,34.101-13.399,34.101-33.899V655.3c-11.4,6.3-23.2,12-35.3,17.101c-47,19.899-97,30-148.4,30S388.5,692.3,341.5,672.4z"/>
	<path d="M703.6,561c10.7-9.5,20.7-19.7,30-30.5c48.3-56.2,77.5-129.3,77.5-209.3C811.1,143.8,667.3,0,489.9,0
		S168.7,143.8,168.7,321.2c0,81.1,30.1,155.2,79.7,211.8c9.3,10.6,19.4,20.6,30,30c9.5,8.3,19.5,16.1,30,23.3
		c51.6,35.4,114.1,56.2,181.5,56.2c68.3,0,131.6-21.3,183.7-57.7C684,577.4,694.1,569.5,703.6,561z M489.9,448.4
		c-44.2,0-83.1-22.5-105.9-56.7c-6.1-9.2-11.1-19.2-14.699-29.9c-3.2-9.4-5.301-19.4-6.101-29.7c-0.3-3.6-0.5-7.3-0.5-11
		c0-70.2,56.9-127.2,127.2-127.2s127.2,56.9,127.2,127.2c0,3.6-0.2,7.2-0.5,10.8c-0.9,10.3-3,20.3-6.101,29.7
		c-3.6,10.7-8.6,20.8-14.699,30C573,425.9,534.1,448.4,489.9,448.4z"/>
</g>
<g>
</g>
<g>
</g>
<g>
</g>
<g>
</g>
<g>
</g>
<g>
</g>
<g>
</g>
<g>
</g>
<g>
</g>
<g>
</g>
<g>
</g>
<g>
</g>
<g>
</g>
<g>
</g>
<g>
</g>
</svg>
