<?xml version="1.0" encoding="iso-8859-1"?>
<!-- Generator: Adobe Illustrator 16.0.0, SVG Export Plug-In . SVG Version: 6.00 Build 0)  -->
<!DOCTYPE svg PUBLIC "-//W3C//DTD SVG 1.1//EN" "http://www.w3.org/Graphics/SVG/1.1/DTD/svg11.dtd">
<svg version="1.1" id="Capa_1" xmlns="http://www.w3.org/2000/svg" xmlns:xlink="http://www.w3.org/1999/xlink" x="0px" y="0px"
	 width="976px" height="976px" viewBox="0 0 976 976" style="enable-background:new 0 0 976 976;" xml:space="preserve">
<g>
	<path d="M755.3,142.9L673,225.2c15,10.6,29.1,22.4,42.2,35.6c13.1,13.2,25,27.2,35.6,42.2l82.3-82.3c21.5-21.5,21.5-56.3,0-77.8
		S776.8,121.4,755.3,142.9z"/>
	<path d="M225.2,672.9l-82.3,82.3c-21.5,21.5-21.5,56.3,0,77.8c10.7,10.7,24.8,16.101,38.9,16.101c14.1,0,28.2-5.4,38.9-16.101
		l82.3-82.3c-15-10.6-29.1-22.4-42.2-35.6C247.7,701.9,235.8,687.9,225.2,672.9z"/>
	<path d="M750.8,672.9c-10.6,15-22.399,29.1-35.6,42.2c-13.2,13.1-27.2,25-42.2,35.6l82.3,82.3c10.7,10.7,24.8,16.101,38.9,16.101
		c14.1,0,28.2-5.4,38.899-16.101c21.5-21.5,21.5-56.3,0-77.8L750.8,672.9z"/>
	<path d="M225.2,303c10.6-15,22.4-29.1,35.6-42.2c13.2-13.1,27.2-25,42.2-35.6l-82.3-82.3c-21.5-21.5-56.3-21.5-77.8,0
		s-21.5,56.3,0,77.8L225.2,303z"/>
	<path d="M166.7,488c0-18.6,1.6-37,4.7-55H55c-30.4,0-55,24.601-55,55c0,30.4,24.6,55,55,55h116.4
		C168.3,524.9,166.7,506.601,166.7,488z"/>
	<path d="M921,433H804.6c3.101,18,4.7,36.4,4.7,55c0,18.601-1.6,37-4.7,55H921c30.4,0,55-24.6,55-55C976,457.601,951.4,433,921,433z
		"/>
	<path d="M433,804.601V921c0,30.4,24.6,55,55,55s55-24.6,55-55V804.601c-18,3.1-36.4,4.699-55,4.699S451,807.7,433,804.601z"/>
	<path d="M433,55v116.4c18-3.1,36.4-4.7,55-4.7s37,1.6,55,4.7V55c0-30.4-24.6-55-55-55S433,24.6,433,55z"/>
	<path d="M743.5,543c3.8-17.7,5.8-36.1,5.8-55c0-18.899-2-37.3-5.8-55c-6.7-31.399-19.1-60.7-35.9-86.8
		c-20.1-31.1-46.699-57.7-77.8-77.8c-26.1-16.9-55.399-29.2-86.8-36c-17.7-3.8-36.1-5.8-55-5.8s-37.3,2-55,5.8
		c-31.4,6.7-60.7,19.1-86.8,36c-31.101,20.1-57.7,46.7-77.8,77.8c-16.9,26.1-29.2,55.4-35.9,86.8c-3.8,17.7-5.8,36.101-5.8,55
		c0,18.9,2,37.3,5.8,55c6.7,31.4,19.1,60.7,35.9,86.8c20.1,31.101,46.7,57.7,77.8,77.801c26.1,16.899,55.399,29.199,86.8,36
		c17.7,3.8,36.1,5.8,55,5.8s37.3-2,55-5.8c31.4-6.7,60.7-19.101,86.8-36c31.101-20.101,57.7-46.7,77.8-77.801
		C724.4,603.601,736.8,574.3,743.5,543z"/>
</g>
<g>
</g>
<g>
</g>
<g>
</g>
<g>
</g>
<g>
</g>
<g>
</g>
<g>
</g>
<g>
</g>
<g>
</g>
<g>
</g>
<g>
</g>
<g>
</g>
<g>
</g>
<g>
</g>
<g>
</g>
</svg>
